{
	"dependencies": ["appliedenergistics2", "sbrbf"],
	"populate": {
		"alt_meteor": {
			"enabled": "true",
			"distribution": "surface",
			"generator": {
				"type": "boulder",
				"block": [
					{
						"name": "appliedenergistics2:sky_stone_block",
						//"name": "tconstruct:clear_glass",
						"weight": 1000
					},
					{
						"name": "appliedenergistics2:charged_quartz_ore",
						"weight": 7
					},
					{
						"name": "sbrbf:block2",
						"weight": 15
					}
				],
				"diameter": 3,
				"size-variance": 3,
				"count": 1
			},
			"cluster-count": 1,
			"chunk-chance": 200,
			"in-village": false,
			"retrogen": "false",
			"biome": "all",
			"dimension": {
				"restriction": "whitelist",
				"value": [
					-1,
					0
				]
			}
		}
	}
}