{
	"dependencies": ["rats", "sbrbf"],
	"populate": {
		"yogurt_cluster": {
			"enabled": "true",
			"distribution": "uniform",
			"min-height": 20,
			"max-height": 60,
			"generator": {
				"type": "lake",
				"block": "sbrbf:block3"
			},
			"cluster-count": 1,
			"chunk-chance": 16,
			"retrogen": "false",
			"biome": "all",
			"dimension": {
				"restriction": "whitelist",
				"value": [
					-8
				]
			}
		}
	}
}