{
  "forge_marker": 1,
  "defaults": {
    "textures": {
      "texture": "contenttweaker:blocks/cdirt2",
      "particle": "contenttweaker:blocks/cdirt2"
    },
    "model": "base:storage",
    "uvlock": true,
    "transform": "forge:default-block"
  },
  "variants": {
    "normal": [{}],
    "inventory": [{}]
  }
}